{
    "_postman_variable_scope": "environment",
    "name": "Workbench Environment (LOCAL)",
    "values": [
        {
            "key": "name",
            "value": null
        },
        {
            "key": "sort_order",
            "value": null
        },
        {
            "key": "Accept",
            "value": "application\/json"
        },
        {
            "key": "login_user_email",
            "value": "apps@elegantmedia.com.au"
        },
        {
            "key": "login_user_pass",
            "value": "12345678"
        },
        {
            "key": "test_user_email",
            "value": "apps+suadmin@elegantmedia.com.au"
        },
        {
            "key": "scheme",
            "value": "http"
        },
        {
            "key": "host",
            "value": "workbench.test"
        },
        {
            "key": "x-api-key",
            "value": "123-123-123-123"
        },
        {
            "key": "x-access-token",
            "value": "1627378646kakXy674jTASTYxy5PxENzvkBaaijZqNX5J"
        }
    ]
}